%YAML 1.1
%TAG !u! tag:unity3d.com,2011:
--- !u!1045 &1
EditorBuildSettings:
  m_ObjectHideFlags: 0
  serializedVersion: 2
  m_Scenes:
  - enabled: 1
    path: Assets/Scenes/scn_Lobby.unity
    guid: 1dd813c37c8ada54a9ba55de5f8c8c4c
  - enabled: 1
    path: Assets/Scenes/scn_Game.unity
    guid: e63ec2ad848df1942832719bf5160eb0
  - enabled: 0
    path: Assets/Scenes/scn_Test.unity
    guid: 8973c7438b17e9c4da8413e964be1016
  m_configObjects: {}
